^C:\USERS\RSHONA\SOURCE\REPOS\HOMEWORK_13\DEBUG\MAIN.OBJ
C:\USERS\RSHONA\SOURCE\REPOS\HOMEWORK_13\DEBUG\HOMEWORK_13.EXE
C:\USERS\RSHONA\SOURCE\REPOS\HOMEWORK_13\DEBUG\HOMEWORK_13.ILK
C:\USERS\RSHONA\SOURCE\REPOS\HOMEWORK_13\DEBUG\HOMEWORK_13.PDB
